<?xml version="1.0" standalone="no"?>
<!DOCTYPE svg PUBLIC "-//W3C//DTD SVG 20010904//EN"
 "http://www.w3.org/TR/2001/REC-SVG-20010904/DTD/svg10.dtd">
<svg version="1.0" xmlns="http://www.w3.org/2000/svg"
 width="170.000000pt" height="170.000000pt" viewBox="0 0 170.000000 170.000000"
 preserveAspectRatio="xMidYMid meet">
<metadata>
Created by potrace 1.11, written by Peter Selinger 2001-2013
</metadata>
<g transform="translate(0.000000,170.000000) scale(0.100000,-0.100000)"
fill="#000000" stroke="none">
<path d="M735 1451 c-91 -5 -117 -10 -147 -29 -21 -13 -41 -30 -45 -37 -5 -7
-42 -36 -84 -64 -133 -88 -234 -214 -296 -365 -28 -70 -36 -81 -67 -94 -40
-16 -54 -48 -36 -81 7 -15 8 -27 0 -40 -17 -33 -11 -62 20 -91 22 -20 30 -37
30 -62 0 -57 39 -196 75 -272 41 -84 124 -196 176 -238 20 -16 54 -34 75 -39
22 -4 245 -9 497 -9 528 0 499 -5 578 94 137 172 210 429 180 640 -32 224
-146 410 -341 557 -143 108 -329 147 -615 130z m122 -67 c178 -70 321 -191
386 -324 20 -41 39 -88 43 -105 4 -19 -5 -8 -24 30 -62 127 -184 259 -277 300
-113 50 -269 64 -333 31 -36 -19 -67 -76 -59 -108 8 -29 -1 -21 -23 22 -39 77
-21 136 54 172 54 25 141 18 233 -18z m284 -20 c105 -31 194 -94 225 -158 11
-22 11 -26 2 -14 -12 14 -13 7 -10 -48 5 -67 -15 -141 -42 -164 -11 -8 -17 -1
-30 36 -24 72 -101 187 -157 238 -28 25 -82 60 -119 78 -38 18 -69 36 -69 41
-1 13 145 7 200 -9z m-221 -144 c136 -26 248 -117 316 -257 21 -43 39 -80 40
-82 2 -2 15 6 30 18 53 41 124 18 124 -42 0 -55 -90 -111 -149 -92 -15 5 -23
-1 -35 -23 -39 -75 -171 -155 -284 -170 -165 -23 -304 47 -379 189 -26 49 -28
63 -28 159 0 90 3 111 23 148 26 49 85 118 115 134 46 24 151 32 227 18z m487
-142 c-3 -8 -6 -5 -6 6 -1 11 2 17 5 13 3 -3 4 -12 1 -19z m-1097 -168 c13 -8
13 -13 -3 -39 -21 -37 -22 -94 -1 -116 21 -21 68 -44 194 -95 58 -24 109 -47
115 -52 5 -4 -65 -8 -155 -8 -129 1 -169 4 -184 15 -11 8 -30 15 -42 15 -12 0
-24 4 -26 9 -1 5 -25 12 -52 14 -26 3 -53 10 -60 17 -6 6 -11 44 -12 86 l0 74
38 12 c32 9 45 9 74 -6 31 -14 36 -21 32 -46 -2 -16 0 -26 4 -24 5 3 6 30 3
59 -6 46 -4 56 14 74 23 23 38 26 61 11z m941 -259 c35 -21 68 -87 94 -186 20
-78 8 -105 -48 -105 -48 0 -67 16 -67 58 0 21 7 48 16 60 8 12 11 22 7 22 -15
0 -70 -63 -78 -88 -7 -26 -88 -93 -148 -124 l-40 -20 -21 21 c-17 18 -21 33
-20 84 0 34 4 80 8 101 l7 39 54 -53 c45 -45 56 -51 69 -41 26 22 73 104 102
179 15 39 29 72 31 72 1 0 17 -9 34 -19z m-90 -73 c-23 -53 -81 -148 -92 -148
-3 0 -26 24 -52 54 l-47 55 53 16 c28 8 75 31 102 49 28 18 52 32 54 30 2 -2
-6 -27 -18 -56z m-593 5 c-15 -2 -42 -2 -60 0 -18 2 -6 4 27 4 33 0 48 -2 33
-4z m-86 -27 c47 -9 98 -20 113 -26 53 -20 82 -146 55 -239 -14 -50 -57 -89
-114 -106 -66 -20 -62 -21 -90 24 -91 144 -181 333 -171 358 6 18 69 15 207
-11z m199 7 c12 -16 12 -17 -1 -7 -8 7 -24 14 -35 17 -19 4 -19 5 1 6 12 0 28
-7 35 -16z m143 -9 c11 -4 14 -13 10 -30 -8 -30 4 -114 15 -114 5 0 23 21 40
48 l31 47 -2 -43 c-2 -51 -28 -76 -75 -70 -27 3 -59 41 -118 141 l-16 27 50 0
c27 0 56 -3 65 -6z m96 -19 c0 -3 -16 -25 -35 -51 l-35 -46 0 45 c0 24 3 47 7
50 7 8 63 10 63 2z m-190 -45 c6 -11 8 -20 6 -20 -3 0 -10 9 -16 20 -6 11 -8
20 -6 20 3 0 10 -9 16 -20z m55 -101 c9 -17 15 -33 13 -35 -3 -2 -12 12 -21
31 -21 43 -13 47 8 4z m105 -71 c46 -127 57 -132 171 -85 168 70 253 83 318
49 48 -24 55 -51 28 -104 -50 -97 -176 -129 -362 -91 -76 16 -98 17 -140 7
-109 -26 -165 -12 -152 38 4 13 0 26 -10 33 -10 8 -13 19 -9 33 6 18 16 22 49
24 37 1 38 2 10 5 -27 3 -33 9 -33 27 0 34 24 50 65 43 21 -3 33 -2 30 4 -4 5
-13 9 -21 9 -17 0 -19 26 -1 33 30 13 45 5 57 -25z"/>
<path d="M701 1174 c-18 -14 -36 -35 -42 -45 -8 -16 -4 -15 27 6 21 14 51 25
70 25 38 0 44 14 15 30 -28 15 -36 13 -70 -16z"/>
<path d="M985 1147 c-16 -13 -15 -14 21 -20 21 -4 56 -18 77 -33 32 -21 37
-22 29 -7 -19 34 -64 73 -86 73 -12 0 -30 -6 -41 -13z"/>
<path d="M704 1064 c-8 -31 13 -58 35 -44 12 7 12 11 2 24 -7 9 -11 23 -7 31
3 9 0 15 -9 15 -8 0 -18 -12 -21 -26z"/>
<path d="M1022 1048 c-17 -17 -16 -68 2 -68 21 0 25 11 18 48 -6 26 -10 30
-20 20z"/>
<path d="M766 964 c-9 -8 -16 -22 -16 -29 0 -7 7 -21 16 -29 20 -21 41 -21 24
0 -11 12 -10 18 3 31 13 14 22 15 52 6 44 -14 45 -9 3 17 -40 24 -61 25 -82 4z"/>
<path d="M665 865 l-40 -24 40 -16 c28 -12 57 -16 100 -13 36 3 75 0 99 -9 46
-16 85 -17 122 -3 l28 11 -27 27 c-22 21 -40 28 -99 34 -183 19 -181 19 -223
-7z"/>
<path d="M730 777 c14 -9 23 -19 22 -24 -6 -13 78 -53 111 -53 37 0 95 27 107
50 9 17 5 18 -50 13 -51 -5 -140 6 -199 23 -9 3 -5 -1 9 -9z"/>
<path d="M150 780 c8 -5 22 -9 30 -9 10 0 8 3 -5 9 -27 12 -43 12 -25 0z"/>
<path d="M217 721 c-4 -17 -3 -21 5 -13 5 5 8 16 6 23 -3 8 -7 3 -11 -10z"/>
<path d="M138 713 c7 -3 16 -2 19 1 4 3 -2 6 -13 5 -11 0 -14 -3 -6 -6z"/>
</g>
</svg>
